{
    "schema": 1,
    "origin": {
        "identification": "demo_presentstimuli",
        "name": "Demo_presentStimuli",
        "version": "1.0.0",
        "description": "A task to show how to present stimuli as well as do recalibration during the experiment ",
        "author": "Insight New Task Wizard"
    },
    "type_info": {
        "type": "JOB"
    },
    "consoles": [],
    "additional_info": {
    }
}
